{
  "project_info": {
    "project_number": "236369464900",
    "firebase_url": "https://task-manager-2eb7e.firebaseio.com",
    "project_id": "task-manager-2eb7e",
    "storage_bucket": "task-manager-2eb7e.appspot.com"
  },
  "client": [
    {
      "client_info": {
        "mobilesdk_app_id": "1:236369464900:android:cf29533cbace0bf6",
        "android_client_info": {
          "package_name": "user.itjunkies.com.taskmanager"
        }
      },
      "oauth_client": [
        {
          "client_id": "236369464900-mgggkllmfkhi8ghsien0dgl9ti7sosvi.apps.googleusercontent.com",
          "client_type": 3
        }
      ],
      "api_key": [
        {
          "current_key": "AIzaSyBv8HFFawntZFz4qijQPxs0-OLuz3jk0nY"
        }
      ],
      "services": {
        "analytics_service": {
          "status": 1
        },
        "appinvite_service": {
          "status": 1,
          "other_platform_oauth_client": []
        },
        "ads_service": {
          "status": 2
        }
      }
    }
  ],
  "configuration_version": "1"
}